<?xml version="1.0" encoding="UTF-8"?>
<svg xmlns="http://www.w3.org/2000/svg" xmlns:xlink="http://www.w3.org/1999/xlink" width="576pt" height="357pt" viewBox="0 0 576 357" version="1.1">
<defs>
<g>
<symbol overflow="visible" id="glyph0-0">
<path style="stroke:none;" d="M 0.5625 0 L 0.5625 -7.203125 L 3.9375 -7.203125 L 3.9375 0 Z M 1.125 -0.5625 L 3.375 -0.5625 L 3.375 -6.640625 L 1.125 -6.640625 Z M 1.125 -0.5625 "/>
</symbol>
<symbol overflow="visible" id="glyph0-1">
<path style="stroke:none;" d="M 6.09375 -2.5625 C 6.09375 -2.289062 6.054688 -2.03125 5.984375 -1.78125 C 5.921875 -1.539062 5.828125 -1.3125 5.703125 -1.09375 C 5.578125 -0.882812 5.425781 -0.691406 5.25 -0.515625 C 5.082031 -0.347656 4.890625 -0.203125 4.671875 -0.078125 C 4.460938 0.0351562 4.234375 0.125 3.984375 0.1875 C 3.742188 0.257812 3.492188 0.296875 3.234375 0.296875 C 2.828125 0.296875 2.453125 0.222656 2.109375 0.078125 C 1.765625 -0.0664062 1.460938 -0.269531 1.203125 -0.53125 C 0.941406 -0.789062 0.738281 -1.09375 0.59375 -1.4375 C 0.445312 -1.78125 0.375 -2.15625 0.375 -2.5625 C 0.375 -2.820312 0.40625 -3.070312 0.46875 -3.3125 C 0.539062 -3.5625 0.640625 -3.789062 0.765625 -4 C 0.890625 -4.207031 1.035156 -4.398438 1.203125 -4.578125 C 1.378906 -4.753906 1.570312 -4.898438 1.78125 -5.015625 C 1.988281 -5.140625 2.210938 -5.234375 2.453125 -5.296875 C 2.703125 -5.367188 2.960938 -5.40625 3.234375 -5.40625 C 3.628906 -5.40625 4 -5.332031 4.34375 -5.1875 C 4.695312 -5.039062 5 -4.835938 5.25 -4.578125 C 5.507812 -4.316406 5.710938 -4.015625 5.859375 -3.671875 C 6.015625 -3.328125 6.09375 -2.957031 6.09375 -2.5625 Z M 6.09375 -2.5625 "/>
</symbol>
<symbol overflow="visible" id="glyph0-2">
<path style="stroke:none;" d="M 4.640625 -1.4375 L 0.765625 -1.4375 L 0.765625 -5.3125 L 4.640625 -5.3125 Z M 4.640625 -1.4375 "/>
</symbol>
<symbol overflow="visible" id="glyph1-0">
<path style="stroke:none;" d=""/>
</symbol>
<symbol overflow="visible" id="glyph1-1">
<path style="stroke:none;" d="M 6.65625 -9.921875 L 1.546875 -9.921875 L 0.796875 -4.515625 L 1.9375 -4.515625 C 2.5 -5.203125 2.984375 -5.453125 3.765625 -5.453125 C 5.09375 -5.453125 5.921875 -4.53125 5.921875 -3.0625 C 5.921875 -1.640625 5.09375 -0.765625 3.75 -0.765625 C 2.671875 -0.765625 2.015625 -1.3125 1.71875 -2.4375 L 0.484375 -2.4375 C 0.65625 -1.625 0.796875 -1.234375 1.09375 -0.875 C 1.65625 -0.109375 2.65625 0.328125 3.78125 0.328125 C 5.78125 0.328125 7.1875 -1.140625 7.1875 -3.234375 C 7.1875 -5.1875 5.875 -6.53125 3.96875 -6.53125 C 3.28125 -6.53125 2.71875 -6.359375 2.140625 -5.9375 L 2.53125 -8.703125 L 6.65625 -8.703125 Z M 6.65625 -9.921875 "/>
</symbol>
<symbol overflow="visible" id="glyph1-2">
<path style="stroke:none;" d="M 6.96875 -7.34375 C 6.734375 -8.953125 5.671875 -9.921875 4.15625 -9.921875 C 3.0625 -9.921875 2.09375 -9.40625 1.5 -8.515625 C 0.875 -7.546875 0.609375 -6.328125 0.609375 -4.515625 C 0.609375 -2.84375 0.859375 -1.796875 1.4375 -0.90625 C 1.96875 -0.109375 2.84375 0.328125 3.9375 0.328125 C 5.828125 0.328125 7.1875 -1.078125 7.1875 -3.03125 C 7.1875 -4.875 5.921875 -6.171875 4.140625 -6.171875 C 3.15625 -6.171875 2.390625 -5.796875 1.859375 -5.0625 C 1.875 -7.484375 2.65625 -8.828125 4.078125 -8.828125 C 4.9375 -8.828125 5.546875 -8.28125 5.734375 -7.34375 Z M 3.984375 -5.078125 C 5.1875 -5.078125 5.921875 -4.25 5.921875 -2.921875 C 5.921875 -1.6875 5.078125 -0.765625 3.953125 -0.765625 C 2.796875 -0.765625 1.9375 -1.71875 1.9375 -3 C 1.9375 -4.234375 2.765625 -5.078125 3.984375 -5.078125 Z M 3.984375 -5.078125 "/>
</symbol>
<symbol overflow="visible" id="glyph1-3">
<path style="stroke:none;" d="M 7.28125 -9.921875 L 0.640625 -9.921875 L 0.640625 -8.703125 L 6 -8.703125 C 3.640625 -5.328125 2.671875 -3.265625 1.9375 0 L 3.25 0 C 3.796875 -3.171875 5.046875 -5.90625 7.28125 -8.890625 Z M 7.28125 -9.921875 "/>
</symbol>
<symbol overflow="visible" id="glyph1-4">
<path style="stroke:none;" d="M 5.46875 -5.21875 C 6.5 -5.859375 6.828125 -6.34375 6.828125 -7.28125 C 6.828125 -8.84375 5.609375 -9.921875 3.84375 -9.921875 C 2.09375 -9.921875 0.875 -8.828125 0.875 -7.28125 C 0.875 -6.359375 1.1875 -5.859375 2.21875 -5.21875 C 1.078125 -4.671875 0.515625 -3.84375 0.515625 -2.765625 C 0.515625 -0.9375 1.875 0.328125 3.84375 0.328125 C 5.8125 0.328125 7.1875 -0.9375 7.1875 -2.75 C 7.1875 -3.84375 6.625 -4.671875 5.46875 -5.21875 Z M 3.84375 -8.828125 C 4.90625 -8.828125 5.578125 -8.21875 5.578125 -7.25 C 5.578125 -6.328125 4.890625 -5.71875 3.84375 -5.71875 C 2.796875 -5.71875 2.125 -6.328125 2.125 -7.265625 C 2.125 -8.21875 2.796875 -8.828125 3.84375 -8.828125 Z M 3.84375 -4.671875 C 5.078125 -4.671875 5.921875 -3.890625 5.921875 -2.734375 C 5.921875 -1.546875 5.09375 -0.765625 3.828125 -0.765625 C 2.625 -0.765625 1.78125 -1.5625 1.78125 -2.734375 C 1.78125 -3.890625 2.609375 -4.671875 3.84375 -4.671875 Z M 3.84375 -4.671875 "/>
</symbol>
<symbol overflow="visible" id="glyph1-5">
<path style="stroke:none;" d="M 0.734375 -2.265625 C 0.984375 -0.640625 2.046875 0.328125 3.5625 0.328125 C 4.65625 0.328125 5.640625 -0.203125 6.234375 -1.09375 C 6.84375 -2.0625 7.125 -3.28125 7.125 -5.078125 C 7.125 -6.75 6.875 -7.8125 6.28125 -8.6875 C 5.734375 -9.484375 4.875 -9.921875 3.78125 -9.921875 C 1.890625 -9.921875 0.53125 -8.53125 0.53125 -6.578125 C 0.53125 -4.734375 1.796875 -3.4375 3.578125 -3.4375 C 4.515625 -3.4375 5.203125 -3.765625 5.859375 -4.53125 C 5.84375 -2.109375 5.046875 -0.765625 3.640625 -0.765625 C 2.765625 -0.765625 2.171875 -1.3125 1.96875 -2.265625 Z M 3.765625 -8.84375 C 4.90625 -8.84375 5.78125 -7.890625 5.78125 -6.609375 C 5.78125 -5.375 4.9375 -4.515625 3.71875 -4.515625 C 2.53125 -4.515625 1.796875 -5.34375 1.796875 -6.671875 C 1.796875 -7.9375 2.625 -8.84375 3.765625 -8.84375 Z M 3.765625 -8.84375 "/>
</symbol>
<symbol overflow="visible" id="glyph1-6">
<path style="stroke:none;" d="M 3.625 -7.0625 L 3.625 0 L 4.859375 0 L 4.859375 -9.921875 L 4.046875 -9.921875 C 3.609375 -8.40625 3.328125 -8.1875 1.421875 -7.953125 L 1.421875 -7.0625 Z M 3.625 -7.0625 "/>
</symbol>
<symbol overflow="visible" id="glyph1-7">
<path style="stroke:none;" d="M 3.84375 -9.921875 C 2.921875 -9.921875 2.09375 -9.515625 1.5625 -8.828125 C 0.921875 -7.96875 0.609375 -6.640625 0.609375 -4.796875 C 0.609375 -1.4375 1.71875 0.328125 3.84375 0.328125 C 5.953125 0.328125 7.09375 -1.453125 7.09375 -4.71875 C 7.09375 -6.65625 6.796875 -7.9375 6.125 -8.828125 C 5.609375 -9.53125 4.78125 -9.921875 3.84375 -9.921875 Z M 3.84375 -8.828125 C 5.1875 -8.828125 5.84375 -7.5 5.84375 -4.828125 C 5.84375 -2.015625 5.1875 -0.703125 3.828125 -0.703125 C 2.515625 -0.703125 1.859375 -2.078125 1.859375 -4.78125 C 1.859375 -7.5 2.515625 -8.828125 3.84375 -8.828125 Z M 3.84375 -8.828125 "/>
</symbol>
<symbol overflow="visible" id="glyph1-8">
<path style="stroke:none;" d="M 1.96875 -10.203125 L 0.8125 -10.203125 L 0.8125 0 L 1.96875 0 L 1.96875 -2.859375 L 3.109375 -3.96875 L 5.59375 0 L 7.03125 0 L 4.03125 -4.796875 L 6.578125 -7.34375 L 5.078125 -7.34375 L 1.96875 -4.234375 Z M 1.96875 -10.203125 "/>
</symbol>
<symbol overflow="visible" id="glyph1-9">
<path style="stroke:none;" d="M 7.078125 -1.21875 L 1.859375 -1.21875 C 1.984375 -2.03125 2.4375 -2.546875 3.65625 -3.265625 L 5.046875 -4.015625 C 6.4375 -4.78125 7.15625 -5.796875 7.15625 -7.015625 C 7.15625 -7.84375 6.8125 -8.609375 6.234375 -9.15625 C 5.640625 -9.671875 4.921875 -9.921875 3.96875 -9.921875 C 2.71875 -9.921875 1.78125 -9.484375 1.234375 -8.640625 C 0.875 -8.109375 0.734375 -7.484375 0.703125 -6.484375 L 1.9375 -6.484375 C 1.96875 -7.15625 2.0625 -7.5625 2.21875 -7.875 C 2.546875 -8.484375 3.1875 -8.84375 3.9375 -8.84375 C 5.046875 -8.84375 5.890625 -8.046875 5.890625 -6.984375 C 5.890625 -6.203125 5.4375 -5.53125 4.546875 -5.03125 L 3.265625 -4.296875 C 1.1875 -3.125 0.59375 -2.1875 0.46875 0 L 7.078125 0 Z M 7.078125 -1.21875 "/>
</symbol>
<symbol overflow="visible" id="glyph1-10">
<path style="stroke:none;" d="M 4.578125 -2.375 L 4.578125 0 L 5.8125 0 L 5.8125 -2.375 L 7.28125 -2.375 L 7.28125 -3.484375 L 5.8125 -3.484375 L 5.8125 -9.921875 L 4.90625 -9.921875 L 0.390625 -3.6875 L 0.390625 -2.375 Z M 4.578125 -3.484375 L 1.46875 -3.484375 L 4.578125 -7.828125 Z M 4.578125 -3.484375 "/>
</symbol>
<symbol overflow="visible" id="glyph1-11">
<path style="stroke:none;" d="M 2.578125 -4.328125 L 5.78125 -4.328125 C 6.578125 -4.328125 7.203125 -4.5625 7.75 -5.046875 C 8.375 -5.609375 8.640625 -6.265625 8.640625 -7.203125 C 8.640625 -9.125 7.5 -10.203125 5.484375 -10.203125 L 1.28125 -10.203125 L 1.28125 0 L 2.578125 0 Z M 2.578125 -5.46875 L 2.578125 -9.0625 L 5.296875 -9.0625 C 6.53125 -9.0625 7.28125 -8.390625 7.28125 -7.265625 C 7.28125 -6.140625 6.53125 -5.46875 5.296875 -5.46875 Z M 2.578125 -5.46875 "/>
</symbol>
<symbol overflow="visible" id="glyph1-12">
<path style="stroke:none;" d="M 7.1875 -3.28125 C 7.1875 -4.390625 7.09375 -5.0625 6.890625 -5.609375 C 6.40625 -6.8125 5.296875 -7.546875 3.921875 -7.546875 C 1.875 -7.546875 0.5625 -5.984375 0.5625 -3.5625 C 0.5625 -1.140625 1.8125 0.328125 3.890625 0.328125 C 5.578125 0.328125 6.734375 -0.625 7.03125 -2.21875 L 5.859375 -2.21875 C 5.53125 -1.265625 4.875 -0.75 3.9375 -0.75 C 3.1875 -0.75 2.5625 -1.09375 2.171875 -1.703125 C 1.890625 -2.125 1.796875 -2.546875 1.78125 -3.28125 Z M 1.8125 -4.234375 C 1.90625 -5.59375 2.734375 -6.46875 3.90625 -6.46875 C 5.09375 -6.46875 5.921875 -5.546875 5.921875 -4.234375 Z M 1.8125 -4.234375 "/>
</symbol>
<symbol overflow="visible" id="glyph1-13">
<path style="stroke:none;" d="M 0.96875 -7.34375 L 0.96875 0 L 2.140625 0 L 2.140625 -3.8125 C 2.15625 -5.578125 2.890625 -6.359375 4.5 -6.3125 L 4.5 -7.5 C 4.296875 -7.53125 4.1875 -7.546875 4.046875 -7.546875 C 3.296875 -7.546875 2.71875 -7.09375 2.046875 -6 L 2.046875 -7.34375 Z M 0.96875 -7.34375 "/>
</symbol>
<symbol overflow="visible" id="glyph1-14">
<path style="stroke:none;" d="M 6.59375 -4.875 C 6.53125 -5.59375 6.390625 -6.046875 6.109375 -6.453125 C 5.59375 -7.140625 4.71875 -7.546875 3.703125 -7.546875 C 1.703125 -7.546875 0.4375 -5.984375 0.4375 -3.546875 C 0.4375 -1.171875 1.6875 0.328125 3.6875 0.328125 C 5.4375 0.328125 6.53125 -0.734375 6.671875 -2.515625 L 5.5 -2.515625 C 5.3125 -1.34375 4.703125 -0.75 3.703125 -0.75 C 2.421875 -0.75 1.65625 -1.8125 1.65625 -3.546875 C 1.65625 -5.375 2.40625 -6.46875 3.6875 -6.46875 C 4.65625 -6.46875 5.28125 -5.890625 5.421875 -4.875 Z M 6.59375 -4.875 "/>
</symbol>
<symbol overflow="visible" id="glyph1-15">
<path style="stroke:none;" d="M 0.984375 -7.34375 L 0.984375 0 L 2.15625 0 L 2.15625 -4.046875 C 2.15625 -5.546875 2.9375 -6.53125 4.140625 -6.53125 C 5.0625 -6.53125 5.65625 -5.96875 5.65625 -5.078125 L 5.65625 0 L 6.8125 0 L 6.8125 -5.546875 C 6.8125 -6.765625 5.90625 -7.546875 4.5 -7.546875 C 3.40625 -7.546875 2.703125 -7.125 2.0625 -6.109375 L 2.0625 -7.34375 Z M 0.984375 -7.34375 "/>
</symbol>
<symbol overflow="visible" id="glyph1-16">
<path style="stroke:none;" d="M 3.5625 -7.34375 L 2.359375 -7.34375 L 2.359375 -9.359375 L 1.1875 -9.359375 L 1.1875 -7.34375 L 0.203125 -7.34375 L 0.203125 -6.390625 L 1.1875 -6.390625 L 1.1875 -0.84375 C 1.1875 -0.078125 1.6875 0.328125 2.609375 0.328125 C 2.90625 0.328125 3.15625 0.296875 3.5625 0.21875 L 3.5625 -0.75 C 3.390625 -0.71875 3.234375 -0.703125 3 -0.703125 C 2.484375 -0.703125 2.359375 -0.84375 2.359375 -1.359375 L 2.359375 -6.390625 L 3.5625 -6.390625 Z M 3.5625 -7.34375 "/>
</symbol>
<symbol overflow="visible" id="glyph1-17">
<path style="stroke:none;" d="M 7.484375 -0.6875 C 7.359375 -0.65625 7.3125 -0.65625 7.234375 -0.65625 C 6.828125 -0.65625 6.609375 -0.875 6.609375 -1.234375 L 6.609375 -5.546875 C 6.609375 -6.84375 5.65625 -7.546875 3.84375 -7.546875 C 2.765625 -7.546875 1.921875 -7.234375 1.40625 -6.6875 C 1.078125 -6.3125 0.9375 -5.890625 0.90625 -5.171875 L 2.09375 -5.171875 C 2.1875 -6.0625 2.71875 -6.46875 3.8125 -6.46875 C 4.875 -6.46875 5.453125 -6.078125 5.453125 -5.375 L 5.453125 -5.0625 C 5.4375 -4.5625 5.1875 -4.375 4.234375 -4.25 C 2.578125 -4.046875 2.328125 -3.984375 1.875 -3.8125 C 1.015625 -3.4375 0.59375 -2.796875 0.59375 -1.84375 C 0.59375 -0.515625 1.515625 0.328125 3 0.328125 C 3.921875 0.328125 4.65625 0 5.484375 -0.75 C 5.578125 0 5.9375 0.328125 6.6875 0.328125 C 6.9375 0.328125 7.09375 0.296875 7.484375 0.203125 Z M 5.453125 -2.3125 C 5.453125 -1.921875 5.328125 -1.6875 4.984375 -1.359375 C 4.515625 -0.921875 3.9375 -0.703125 3.25 -0.703125 C 2.34375 -0.703125 1.8125 -1.140625 1.8125 -1.875 C 1.8125 -2.640625 2.3125 -3.03125 3.5625 -3.21875 C 4.8125 -3.390625 5.046875 -3.4375 5.453125 -3.625 Z M 5.453125 -2.3125 "/>
</symbol>
<symbol overflow="visible" id="glyph1-18">
<path style="stroke:none;" d="M 5.65625 -7.34375 L 5.65625 -6.265625 C 5.0625 -7.15625 4.421875 -7.546875 3.5 -7.546875 C 1.71875 -7.546875 0.484375 -5.890625 0.484375 -3.546875 C 0.484375 -2.3125 0.78125 -1.40625 1.40625 -0.671875 C 1.953125 -0.03125 2.65625 0.328125 3.421875 0.328125 C 4.296875 0.328125 4.921875 -0.0625 5.546875 -1 L 5.546875 -0.609375 C 5.546875 1.34375 5 2.078125 3.546875 2.078125 C 2.546875 2.078125 2.03125 1.6875 1.921875 0.84375 L 0.734375 0.84375 C 0.84375 2.203125 1.921875 3.046875 3.515625 3.046875 C 4.59375 3.046875 5.484375 2.703125 5.96875 2.109375 C 6.53125 1.421875 6.734375 0.515625 6.734375 -1.203125 L 6.734375 -7.34375 Z M 3.609375 -6.46875 C 4.84375 -6.46875 5.546875 -5.4375 5.546875 -3.5625 C 5.546875 -1.796875 4.828125 -0.75 3.609375 -0.75 C 2.40625 -0.75 1.703125 -1.8125 1.703125 -3.609375 C 1.703125 -5.40625 2.40625 -6.46875 3.609375 -6.46875 Z M 3.609375 -6.46875 "/>
</symbol>
<symbol overflow="visible" id="glyph1-19">
<path style="stroke:none;" d="M 3.8125 -7.546875 C 1.734375 -7.546875 0.5 -6.078125 0.5 -3.609375 C 0.5 -1.140625 1.734375 0.328125 3.828125 0.328125 C 5.890625 0.328125 7.140625 -1.140625 7.140625 -3.5625 C 7.140625 -6.109375 5.9375 -7.546875 3.8125 -7.546875 Z M 3.828125 -6.46875 C 5.140625 -6.46875 5.921875 -5.390625 5.921875 -3.5625 C 5.921875 -1.828125 5.109375 -0.75 3.828125 -0.75 C 2.515625 -0.75 1.71875 -1.828125 1.71875 -3.609375 C 1.71875 -5.390625 2.515625 -6.46875 3.828125 -6.46875 Z M 3.828125 -6.46875 "/>
</symbol>
<symbol overflow="visible" id="glyph1-20">
<path style="stroke:none;" d="M 3.609375 -7.34375 L 2.390625 -7.34375 L 2.390625 -8.484375 C 2.390625 -8.96875 2.65625 -9.21875 3.203125 -9.21875 C 3.296875 -9.21875 3.34375 -9.21875 3.609375 -9.21875 L 3.609375 -10.171875 C 3.34375 -10.234375 3.1875 -10.25 2.953125 -10.25 C 1.875 -10.25 1.234375 -9.625 1.234375 -8.578125 L 1.234375 -7.34375 L 0.25 -7.34375 L 0.25 -6.390625 L 1.234375 -6.390625 L 1.234375 0 L 2.390625 0 L 2.390625 -6.390625 L 3.609375 -6.390625 Z M 3.609375 -7.34375 "/>
</symbol>
<symbol overflow="visible" id="glyph1-21">
<path style="stroke:none;" d="M 2.09375 -7.34375 L 0.9375 -7.34375 L 0.9375 0 L 2.09375 0 Z M 2.09375 -10.203125 L 0.921875 -10.203125 L 0.921875 -8.734375 L 2.09375 -8.734375 Z M 2.09375 -10.203125 "/>
</symbol>
<symbol overflow="visible" id="glyph1-22">
<path style="stroke:none;" d="M 0.984375 -7.34375 L 0.984375 0 L 2.15625 0 L 2.15625 -4.609375 C 2.15625 -5.671875 2.921875 -6.53125 3.875 -6.53125 C 4.75 -6.53125 5.234375 -5.984375 5.234375 -5.046875 L 5.234375 0 L 6.40625 0 L 6.40625 -4.609375 C 6.40625 -5.671875 7.1875 -6.53125 8.140625 -6.53125 C 8.984375 -6.53125 9.484375 -5.984375 9.484375 -5.046875 L 9.484375 0 L 10.671875 0 L 10.671875 -5.5 C 10.671875 -6.8125 9.90625 -7.546875 8.546875 -7.546875 C 7.5625 -7.546875 6.96875 -7.25 6.28125 -6.421875 C 5.859375 -7.203125 5.265625 -7.546875 4.3125 -7.546875 C 3.328125 -7.546875 2.671875 -7.1875 2.0625 -6.296875 L 2.0625 -7.34375 Z M 0.984375 -7.34375 "/>
</symbol>
</g>
</defs>
<g id="surface7">
<path style="fill:none;stroke-width:1.6;stroke-linecap:square;stroke-linejoin:miter;stroke:rgb(36.84082%,50.67749%,70.979309%);stroke-opacity:1;stroke-miterlimit:3.25;" d="M 132.554688 322.03125 L 201.605469 322.03125 " transform="matrix(1,0,0,1,-66,-5)"/>
<path style="fill:none;stroke-width:1.6;stroke-linecap:square;stroke-linejoin:miter;stroke:rgb(36.84082%,50.67749%,70.979309%);stroke-opacity:1;stroke-miterlimit:3.25;" d="M 201.605469 328.566406 L 270.660156 328.566406 " transform="matrix(1,0,0,1,-66,-5)"/>
<path style="fill:none;stroke-width:1.6;stroke-linecap:square;stroke-linejoin:miter;stroke:rgb(36.84082%,50.67749%,70.979309%);stroke-opacity:1;stroke-miterlimit:3.25;" d="M 270.660156 324.207031 L 339.714844 324.207031 " transform="matrix(1,0,0,1,-66,-5)"/>
<path style="fill:none;stroke-width:1.6;stroke-linecap:square;stroke-linejoin:miter;stroke:rgb(36.84082%,50.67749%,70.979309%);stroke-opacity:1;stroke-miterlimit:3.25;" d="M 339.714844 323.273438 L 408.769531 323.273438 " transform="matrix(1,0,0,1,-66,-5)"/>
<path style="fill:none;stroke-width:1.6;stroke-linecap:square;stroke-linejoin:miter;stroke:rgb(36.84082%,50.67749%,70.979309%);stroke-opacity:1;stroke-miterlimit:3.25;" d="M 408.769531 322.964844 L 477.820312 322.964844 " transform="matrix(1,0,0,1,-66,-5)"/>
<path style="fill:none;stroke-width:1.6;stroke-linecap:square;stroke-linejoin:miter;stroke:rgb(36.84082%,50.67749%,70.979309%);stroke-opacity:1;stroke-miterlimit:3.25;" d="M 477.820312 315.183594 L 546.875 315.183594 " transform="matrix(1,0,0,1,-66,-5)"/>
<path style="fill:none;stroke-width:1.6;stroke-linecap:square;stroke-linejoin:miter;stroke:rgb(36.84082%,50.67749%,70.979309%);stroke-opacity:1;stroke-miterlimit:3.25;" d="M 546.875 308.960938 L 615.929688 308.960938 " transform="matrix(1,0,0,1,-66,-5)"/>
<path style="fill:none;stroke-width:1.6;stroke-linecap:square;stroke-linejoin:miter;stroke:rgb(88.070679%,61.103821%,14.204407%);stroke-opacity:1;stroke-miterlimit:3.25;" d="M 132.554688 249.523438 L 201.605469 249.523438 " transform="matrix(1,0,0,1,-66,-5)"/>
<path style="fill:none;stroke-width:1.6;stroke-linecap:square;stroke-linejoin:miter;stroke:rgb(88.070679%,61.103821%,14.204407%);stroke-opacity:1;stroke-miterlimit:3.25;" d="M 201.605469 271.304688 L 270.660156 271.304688 " transform="matrix(1,0,0,1,-66,-5)"/>
<path style="fill:none;stroke-width:1.6;stroke-linecap:square;stroke-linejoin:miter;stroke:rgb(88.070679%,61.103821%,14.204407%);stroke-opacity:1;stroke-miterlimit:3.25;" d="M 270.660156 247.03125 L 339.714844 247.03125 " transform="matrix(1,0,0,1,-66,-5)"/>
<path style="fill:none;stroke-width:1.6;stroke-linecap:square;stroke-linejoin:miter;stroke:rgb(88.070679%,61.103821%,14.204407%);stroke-opacity:1;stroke-miterlimit:3.25;" d="M 339.714844 192.886719 L 408.769531 192.886719 " transform="matrix(1,0,0,1,-66,-5)"/>
<path style="fill:none;stroke-width:1.6;stroke-linecap:square;stroke-linejoin:miter;stroke:rgb(88.070679%,61.103821%,14.204407%);stroke-opacity:1;stroke-miterlimit:3.25;" d="M 408.769531 275.351562 L 477.820312 275.351562 " transform="matrix(1,0,0,1,-66,-5)"/>
<path style="fill:none;stroke-width:1.6;stroke-linecap:square;stroke-linejoin:miter;stroke:rgb(88.070679%,61.103821%,14.204407%);stroke-opacity:1;stroke-miterlimit:3.25;" d="M 477.820312 231.164062 L 546.875 231.164062 " transform="matrix(1,0,0,1,-66,-5)"/>
<path style="fill:none;stroke-width:1.6;stroke-linecap:square;stroke-linejoin:miter;stroke:rgb(88.070679%,61.103821%,14.204407%);stroke-opacity:1;stroke-miterlimit:3.25;" d="M 546.875 214.980469 L 615.929688 214.980469 " transform="matrix(1,0,0,1,-66,-5)"/>
<g style="fill:rgb(36.84082%,50.67749%,70.979309%);fill-opacity:1;">
  <use xlink:href="#glyph0-1" x="98.079684" y="320.029996"/>
</g>
<g style="fill:rgb(36.84082%,50.67749%,70.979309%);fill-opacity:1;">
  <use xlink:href="#glyph0-1" x="167.133525" y="326.565007"/>
</g>
<g style="fill:rgb(36.84082%,50.67749%,70.979309%);fill-opacity:1;">
  <use xlink:href="#glyph0-1" x="236.187365" y="322.208333"/>
</g>
<g style="fill:rgb(36.84082%,50.67749%,70.979309%);fill-opacity:1;">
  <use xlink:href="#glyph0-1" x="305.241206" y="321.27476"/>
</g>
<g style="fill:rgb(36.84082%,50.67749%,70.979309%);fill-opacity:1;">
  <use xlink:href="#glyph0-1" x="374.295047" y="320.963569"/>
</g>
<g style="fill:rgb(36.84082%,50.67749%,70.979309%);fill-opacity:1;">
  <use xlink:href="#glyph0-1" x="443.348887" y="313.183795"/>
</g>
<g style="fill:rgb(36.84082%,50.67749%,70.979309%);fill-opacity:1;">
  <use xlink:href="#glyph0-1" x="512.402728" y="306.959975"/>
</g>
<g style="fill:rgb(88.070679%,61.103821%,14.204407%);fill-opacity:1;">
  <use xlink:href="#glyph0-2" x="98.579684" y="247.522497"/>
</g>
<g style="fill:rgb(88.070679%,61.103821%,14.204407%);fill-opacity:1;">
  <use xlink:href="#glyph0-2" x="167.633525" y="269.305866"/>
</g>
<g style="fill:rgb(88.070679%,61.103821%,14.204407%);fill-opacity:1;">
  <use xlink:href="#glyph0-2" x="236.687365" y="245.032969"/>
</g>
<g style="fill:rgb(88.070679%,61.103821%,14.204407%);fill-opacity:1;">
  <use xlink:href="#glyph0-2" x="305.741206" y="190.885738"/>
</g>
<g style="fill:rgb(88.070679%,61.103821%,14.204407%);fill-opacity:1;">
  <use xlink:href="#glyph0-2" x="374.795047" y="273.351349"/>
</g>
<g style="fill:rgb(88.070679%,61.103821%,14.204407%);fill-opacity:1;">
  <use xlink:href="#glyph0-2" x="443.848887" y="229.162229"/>
</g>
<g style="fill:rgb(88.070679%,61.103821%,14.204407%);fill-opacity:1;">
  <use xlink:href="#glyph0-2" x="512.902728" y="212.980298"/>
</g>
<path style="fill:none;stroke-width:0.2;stroke-linecap:butt;stroke-linejoin:miter;stroke:rgb(39.99939%,39.99939%,39.99939%);stroke-opacity:1;stroke-miterlimit:3.25;" d="M 125.648438 343.191406 L 125.648438 340.753906 " transform="matrix(1,0,0,1,-66,-5)"/>
<path style="fill:none;stroke-width:0.2;stroke-linecap:butt;stroke-linejoin:miter;stroke:rgb(39.99939%,39.99939%,39.99939%);stroke-opacity:1;stroke-miterlimit:3.25;" d="M 139.457031 343.191406 L 139.457031 340.753906 " transform="matrix(1,0,0,1,-66,-5)"/>
<path style="fill:none;stroke-width:0.2;stroke-linecap:butt;stroke-linejoin:miter;stroke:rgb(39.99939%,39.99939%,39.99939%);stroke-opacity:1;stroke-miterlimit:3.25;" d="M 153.269531 343.191406 L 153.269531 340.753906 " transform="matrix(1,0,0,1,-66,-5)"/>
<path style="fill:none;stroke-width:0.2;stroke-linecap:butt;stroke-linejoin:miter;stroke:rgb(39.99939%,39.99939%,39.99939%);stroke-opacity:1;stroke-miterlimit:3.25;" d="M 167.078125 343.191406 L 167.078125 339.125 " transform="matrix(1,0,0,1,-66,-5)"/>
<g style="fill:rgb(39.99939%,39.99939%,39.99939%);fill-opacity:1;">
  <use xlink:href="#glyph1-1" x="97.079684" y="356.190983"/>
</g>
<path style="fill:none;stroke-width:0.2;stroke-linecap:butt;stroke-linejoin:miter;stroke:rgb(39.99939%,39.99939%,39.99939%);stroke-opacity:1;stroke-miterlimit:3.25;" d="M 180.890625 343.191406 L 180.890625 340.753906 " transform="matrix(1,0,0,1,-66,-5)"/>
<path style="fill:none;stroke-width:0.2;stroke-linecap:butt;stroke-linejoin:miter;stroke:rgb(39.99939%,39.99939%,39.99939%);stroke-opacity:1;stroke-miterlimit:3.25;" d="M 194.703125 343.191406 L 194.703125 340.753906 " transform="matrix(1,0,0,1,-66,-5)"/>
<path style="fill:none;stroke-width:0.2;stroke-linecap:butt;stroke-linejoin:miter;stroke:rgb(39.99939%,39.99939%,39.99939%);stroke-opacity:1;stroke-miterlimit:3.25;" d="M 208.511719 343.191406 L 208.511719 340.753906 " transform="matrix(1,0,0,1,-66,-5)"/>
<path style="fill:none;stroke-width:0.2;stroke-linecap:butt;stroke-linejoin:miter;stroke:rgb(39.99939%,39.99939%,39.99939%);stroke-opacity:1;stroke-miterlimit:3.25;" d="M 222.324219 343.191406 L 222.324219 340.753906 " transform="matrix(1,0,0,1,-66,-5)"/>
<path style="fill:none;stroke-width:0.2;stroke-linecap:butt;stroke-linejoin:miter;stroke:rgb(39.99939%,39.99939%,39.99939%);stroke-opacity:1;stroke-miterlimit:3.25;" d="M 236.132812 343.191406 L 236.132812 339.125 " transform="matrix(1,0,0,1,-66,-5)"/>
<g style="fill:rgb(39.99939%,39.99939%,39.99939%);fill-opacity:1;">
  <use xlink:href="#glyph1-2" x="166.133525" y="356.190983"/>
</g>
<path style="fill:none;stroke-width:0.2;stroke-linecap:butt;stroke-linejoin:miter;stroke:rgb(39.99939%,39.99939%,39.99939%);stroke-opacity:1;stroke-miterlimit:3.25;" d="M 249.945312 343.191406 L 249.945312 340.753906 " transform="matrix(1,0,0,1,-66,-5)"/>
<path style="fill:none;stroke-width:0.2;stroke-linecap:butt;stroke-linejoin:miter;stroke:rgb(39.99939%,39.99939%,39.99939%);stroke-opacity:1;stroke-miterlimit:3.25;" d="M 263.753906 343.191406 L 263.753906 340.753906 " transform="matrix(1,0,0,1,-66,-5)"/>
<path style="fill:none;stroke-width:0.2;stroke-linecap:butt;stroke-linejoin:miter;stroke:rgb(39.99939%,39.99939%,39.99939%);stroke-opacity:1;stroke-miterlimit:3.25;" d="M 277.566406 343.191406 L 277.566406 340.753906 " transform="matrix(1,0,0,1,-66,-5)"/>
<path style="fill:none;stroke-width:0.2;stroke-linecap:butt;stroke-linejoin:miter;stroke:rgb(39.99939%,39.99939%,39.99939%);stroke-opacity:1;stroke-miterlimit:3.25;" d="M 291.375 343.191406 L 291.375 340.753906 " transform="matrix(1,0,0,1,-66,-5)"/>
<path style="fill:none;stroke-width:0.2;stroke-linecap:butt;stroke-linejoin:miter;stroke:rgb(39.99939%,39.99939%,39.99939%);stroke-opacity:1;stroke-miterlimit:3.25;" d="M 305.1875 343.191406 L 305.1875 339.125 " transform="matrix(1,0,0,1,-66,-5)"/>
<g style="fill:rgb(39.99939%,39.99939%,39.99939%);fill-opacity:1;">
  <use xlink:href="#glyph1-3" x="235.187365" y="356.190983"/>
</g>
<path style="fill:none;stroke-width:0.2;stroke-linecap:butt;stroke-linejoin:miter;stroke:rgb(39.99939%,39.99939%,39.99939%);stroke-opacity:1;stroke-miterlimit:3.25;" d="M 319 343.191406 L 319 340.753906 " transform="matrix(1,0,0,1,-66,-5)"/>
<path style="fill:none;stroke-width:0.2;stroke-linecap:butt;stroke-linejoin:miter;stroke:rgb(39.99939%,39.99939%,39.99939%);stroke-opacity:1;stroke-miterlimit:3.25;" d="M 332.808594 343.191406 L 332.808594 340.753906 " transform="matrix(1,0,0,1,-66,-5)"/>
<path style="fill:none;stroke-width:0.2;stroke-linecap:butt;stroke-linejoin:miter;stroke:rgb(39.99939%,39.99939%,39.99939%);stroke-opacity:1;stroke-miterlimit:3.25;" d="M 346.621094 343.191406 L 346.621094 340.753906 " transform="matrix(1,0,0,1,-66,-5)"/>
<path style="fill:none;stroke-width:0.2;stroke-linecap:butt;stroke-linejoin:miter;stroke:rgb(39.99939%,39.99939%,39.99939%);stroke-opacity:1;stroke-miterlimit:3.25;" d="M 360.429688 343.191406 L 360.429688 340.753906 " transform="matrix(1,0,0,1,-66,-5)"/>
<path style="fill:none;stroke-width:0.2;stroke-linecap:butt;stroke-linejoin:miter;stroke:rgb(39.99939%,39.99939%,39.99939%);stroke-opacity:1;stroke-miterlimit:3.25;" d="M 374.242188 343.191406 L 374.242188 339.125 " transform="matrix(1,0,0,1,-66,-5)"/>
<g style="fill:rgb(39.99939%,39.99939%,39.99939%);fill-opacity:1;">
  <use xlink:href="#glyph1-4" x="304.241206" y="356.190983"/>
</g>
<path style="fill:none;stroke-width:0.2;stroke-linecap:butt;stroke-linejoin:miter;stroke:rgb(39.99939%,39.99939%,39.99939%);stroke-opacity:1;stroke-miterlimit:3.25;" d="M 388.050781 343.191406 L 388.050781 340.753906 " transform="matrix(1,0,0,1,-66,-5)"/>
<path style="fill:none;stroke-width:0.2;stroke-linecap:butt;stroke-linejoin:miter;stroke:rgb(39.99939%,39.99939%,39.99939%);stroke-opacity:1;stroke-miterlimit:3.25;" d="M 401.863281 343.191406 L 401.863281 340.753906 " transform="matrix(1,0,0,1,-66,-5)"/>
<path style="fill:none;stroke-width:0.2;stroke-linecap:butt;stroke-linejoin:miter;stroke:rgb(39.99939%,39.99939%,39.99939%);stroke-opacity:1;stroke-miterlimit:3.25;" d="M 415.671875 343.191406 L 415.671875 340.753906 " transform="matrix(1,0,0,1,-66,-5)"/>
<path style="fill:none;stroke-width:0.2;stroke-linecap:butt;stroke-linejoin:miter;stroke:rgb(39.99939%,39.99939%,39.99939%);stroke-opacity:1;stroke-miterlimit:3.25;" d="M 429.484375 343.191406 L 429.484375 340.753906 " transform="matrix(1,0,0,1,-66,-5)"/>
<path style="fill:none;stroke-width:0.2;stroke-linecap:butt;stroke-linejoin:miter;stroke:rgb(39.99939%,39.99939%,39.99939%);stroke-opacity:1;stroke-miterlimit:3.25;" d="M 443.296875 343.191406 L 443.296875 339.125 " transform="matrix(1,0,0,1,-66,-5)"/>
<g style="fill:rgb(39.99939%,39.99939%,39.99939%);fill-opacity:1;">
  <use xlink:href="#glyph1-5" x="373.295047" y="356.190983"/>
</g>
<path style="fill:none;stroke-width:0.2;stroke-linecap:butt;stroke-linejoin:miter;stroke:rgb(39.99939%,39.99939%,39.99939%);stroke-opacity:1;stroke-miterlimit:3.25;" d="M 457.105469 343.191406 L 457.105469 340.753906 " transform="matrix(1,0,0,1,-66,-5)"/>
<path style="fill:none;stroke-width:0.2;stroke-linecap:butt;stroke-linejoin:miter;stroke:rgb(39.99939%,39.99939%,39.99939%);stroke-opacity:1;stroke-miterlimit:3.25;" d="M 470.917969 343.191406 L 470.917969 340.753906 " transform="matrix(1,0,0,1,-66,-5)"/>
<path style="fill:none;stroke-width:0.2;stroke-linecap:butt;stroke-linejoin:miter;stroke:rgb(39.99939%,39.99939%,39.99939%);stroke-opacity:1;stroke-miterlimit:3.25;" d="M 484.726562 343.191406 L 484.726562 340.753906 " transform="matrix(1,0,0,1,-66,-5)"/>
<path style="fill:none;stroke-width:0.2;stroke-linecap:butt;stroke-linejoin:miter;stroke:rgb(39.99939%,39.99939%,39.99939%);stroke-opacity:1;stroke-miterlimit:3.25;" d="M 498.539062 343.191406 L 498.539062 340.753906 " transform="matrix(1,0,0,1,-66,-5)"/>
<path style="fill:none;stroke-width:0.2;stroke-linecap:butt;stroke-linejoin:miter;stroke:rgb(39.99939%,39.99939%,39.99939%);stroke-opacity:1;stroke-miterlimit:3.25;" d="M 512.347656 343.191406 L 512.347656 339.125 " transform="matrix(1,0,0,1,-66,-5)"/>
<g style="fill:rgb(39.99939%,39.99939%,39.99939%);fill-opacity:1;">
  <use xlink:href="#glyph1-6" x="438.348887" y="356.190983"/>
  <use xlink:href="#glyph1-7" x="446.348887" y="356.190983"/>
</g>
<path style="fill:none;stroke-width:0.2;stroke-linecap:butt;stroke-linejoin:miter;stroke:rgb(39.99939%,39.99939%,39.99939%);stroke-opacity:1;stroke-miterlimit:3.25;" d="M 526.160156 343.191406 L 526.160156 340.753906 " transform="matrix(1,0,0,1,-66,-5)"/>
<path style="fill:none;stroke-width:0.2;stroke-linecap:butt;stroke-linejoin:miter;stroke:rgb(39.99939%,39.99939%,39.99939%);stroke-opacity:1;stroke-miterlimit:3.25;" d="M 539.96875 343.191406 L 539.96875 340.753906 " transform="matrix(1,0,0,1,-66,-5)"/>
<path style="fill:none;stroke-width:0.2;stroke-linecap:butt;stroke-linejoin:miter;stroke:rgb(39.99939%,39.99939%,39.99939%);stroke-opacity:1;stroke-miterlimit:3.25;" d="M 553.78125 343.191406 L 553.78125 340.753906 " transform="matrix(1,0,0,1,-66,-5)"/>
<path style="fill:none;stroke-width:0.2;stroke-linecap:butt;stroke-linejoin:miter;stroke:rgb(39.99939%,39.99939%,39.99939%);stroke-opacity:1;stroke-miterlimit:3.25;" d="M 567.59375 343.191406 L 567.59375 340.753906 " transform="matrix(1,0,0,1,-66,-5)"/>
<path style="fill:none;stroke-width:0.2;stroke-linecap:butt;stroke-linejoin:miter;stroke:rgb(39.99939%,39.99939%,39.99939%);stroke-opacity:1;stroke-miterlimit:3.25;" d="M 581.402344 343.191406 L 581.402344 339.125 " transform="matrix(1,0,0,1,-66,-5)"/>
<g style="fill:rgb(39.99939%,39.99939%,39.99939%);fill-opacity:1;">
  <use xlink:href="#glyph1-6" x="507.402728" y="356.190983"/>
  <use xlink:href="#glyph1-6" x="515.402728" y="356.190983"/>
</g>
<path style="fill:none;stroke-width:0.2;stroke-linecap:butt;stroke-linejoin:miter;stroke:rgb(39.99939%,39.99939%,39.99939%);stroke-opacity:1;stroke-miterlimit:3.25;" d="M 595.214844 343.191406 L 595.214844 340.753906 " transform="matrix(1,0,0,1,-66,-5)"/>
<path style="fill:none;stroke-width:0.2;stroke-linecap:butt;stroke-linejoin:miter;stroke:rgb(39.99939%,39.99939%,39.99939%);stroke-opacity:1;stroke-miterlimit:3.25;" d="M 609.023438 343.191406 L 609.023438 340.753906 " transform="matrix(1,0,0,1,-66,-5)"/>
<path style="fill:none;stroke-width:0.2;stroke-linecap:butt;stroke-linejoin:miter;stroke:rgb(39.99939%,39.99939%,39.99939%);stroke-opacity:1;stroke-miterlimit:3.25;" d="M 622.835938 343.191406 L 622.835938 340.753906 " transform="matrix(1,0,0,1,-66,-5)"/>
<path style="fill:none;stroke-width:0.2;stroke-linecap:butt;stroke-linejoin:miter;stroke:rgb(39.99939%,39.99939%,39.99939%);stroke-opacity:1;stroke-miterlimit:3.25;" d="M 122.480469 343.191406 L 626 343.191406 " transform="matrix(1,0,0,1,-66,-5)"/>
<g style="fill:rgb(39.99939%,39.99939%,39.99939%);fill-opacity:1;">
  <use xlink:href="#glyph1-8" x="568" y="342.690983"/>
</g>
<path style="fill:none;stroke-width:0.2;stroke-linecap:butt;stroke-linejoin:miter;stroke:rgb(39.99939%,39.99939%,39.99939%);stroke-opacity:1;stroke-miterlimit:3.25;" d="M 125 343.191406 L 129.066406 343.191406 " transform="matrix(1,0,0,1,-66,-5)"/>
<path style="fill:none;stroke-width:0.2;stroke-linecap:butt;stroke-linejoin:miter;stroke:rgb(39.99939%,39.99939%,39.99939%);stroke-opacity:1;stroke-miterlimit:3.25;" d="M 125 327.632812 L 127.4375 327.632812 " transform="matrix(1,0,0,1,-66,-5)"/>
<path style="fill:none;stroke-width:0.2;stroke-linecap:butt;stroke-linejoin:miter;stroke:rgb(39.99939%,39.99939%,39.99939%);stroke-opacity:1;stroke-miterlimit:3.25;" d="M 125 312.070312 L 127.4375 312.070312 " transform="matrix(1,0,0,1,-66,-5)"/>
<path style="fill:none;stroke-width:0.2;stroke-linecap:butt;stroke-linejoin:miter;stroke:rgb(39.99939%,39.99939%,39.99939%);stroke-opacity:1;stroke-miterlimit:3.25;" d="M 125 296.511719 L 127.4375 296.511719 " transform="matrix(1,0,0,1,-66,-5)"/>
<path style="fill:none;stroke-width:0.2;stroke-linecap:butt;stroke-linejoin:miter;stroke:rgb(39.99939%,39.99939%,39.99939%);stroke-opacity:1;stroke-miterlimit:3.25;" d="M 125 280.953125 L 129.066406 280.953125 " transform="matrix(1,0,0,1,-66,-5)"/>
<g style="fill:rgb(39.99939%,39.99939%,39.99939%);fill-opacity:1;">
  <use xlink:href="#glyph1-9" x="40" y="280.452787"/>
  <use xlink:href="#glyph1-7" x="48" y="280.452787"/>
</g>
<path style="fill:none;stroke-width:0.2;stroke-linecap:butt;stroke-linejoin:miter;stroke:rgb(39.99939%,39.99939%,39.99939%);stroke-opacity:1;stroke-miterlimit:3.25;" d="M 125 265.394531 L 127.4375 265.394531 " transform="matrix(1,0,0,1,-66,-5)"/>
<path style="fill:none;stroke-width:0.2;stroke-linecap:butt;stroke-linejoin:miter;stroke:rgb(39.99939%,39.99939%,39.99939%);stroke-opacity:1;stroke-miterlimit:3.25;" d="M 125 249.832031 L 127.4375 249.832031 " transform="matrix(1,0,0,1,-66,-5)"/>
<path style="fill:none;stroke-width:0.2;stroke-linecap:butt;stroke-linejoin:miter;stroke:rgb(39.99939%,39.99939%,39.99939%);stroke-opacity:1;stroke-miterlimit:3.25;" d="M 125 234.273438 L 127.4375 234.273438 " transform="matrix(1,0,0,1,-66,-5)"/>
<path style="fill:none;stroke-width:0.2;stroke-linecap:butt;stroke-linejoin:miter;stroke:rgb(39.99939%,39.99939%,39.99939%);stroke-opacity:1;stroke-miterlimit:3.25;" d="M 125 218.714844 L 129.066406 218.714844 " transform="matrix(1,0,0,1,-66,-5)"/>
<g style="fill:rgb(39.99939%,39.99939%,39.99939%);fill-opacity:1;">
  <use xlink:href="#glyph1-10" x="40" y="218.21459"/>
  <use xlink:href="#glyph1-7" x="48" y="218.21459"/>
</g>
<path style="fill:none;stroke-width:0.2;stroke-linecap:butt;stroke-linejoin:miter;stroke:rgb(39.99939%,39.99939%,39.99939%);stroke-opacity:1;stroke-miterlimit:3.25;" d="M 125 203.15625 L 127.4375 203.15625 " transform="matrix(1,0,0,1,-66,-5)"/>
<path style="fill:none;stroke-width:0.2;stroke-linecap:butt;stroke-linejoin:miter;stroke:rgb(39.99939%,39.99939%,39.99939%);stroke-opacity:1;stroke-miterlimit:3.25;" d="M 125 187.59375 L 127.4375 187.59375 " transform="matrix(1,0,0,1,-66,-5)"/>
<path style="fill:none;stroke-width:0.2;stroke-linecap:butt;stroke-linejoin:miter;stroke:rgb(39.99939%,39.99939%,39.99939%);stroke-opacity:1;stroke-miterlimit:3.25;" d="M 125 172.035156 L 127.4375 172.035156 " transform="matrix(1,0,0,1,-66,-5)"/>
<path style="fill:none;stroke-width:0.2;stroke-linecap:butt;stroke-linejoin:miter;stroke:rgb(39.99939%,39.99939%,39.99939%);stroke-opacity:1;stroke-miterlimit:3.25;" d="M 125 156.476562 L 129.066406 156.476562 " transform="matrix(1,0,0,1,-66,-5)"/>
<g style="fill:rgb(39.99939%,39.99939%,39.99939%);fill-opacity:1;">
  <use xlink:href="#glyph1-2" x="40" y="155.976393"/>
  <use xlink:href="#glyph1-7" x="48" y="155.976393"/>
</g>
<path style="fill:none;stroke-width:0.2;stroke-linecap:butt;stroke-linejoin:miter;stroke:rgb(39.99939%,39.99939%,39.99939%);stroke-opacity:1;stroke-miterlimit:3.25;" d="M 125 140.917969 L 127.4375 140.917969 " transform="matrix(1,0,0,1,-66,-5)"/>
<path style="fill:none;stroke-width:0.2;stroke-linecap:butt;stroke-linejoin:miter;stroke:rgb(39.99939%,39.99939%,39.99939%);stroke-opacity:1;stroke-miterlimit:3.25;" d="M 125 125.355469 L 127.4375 125.355469 " transform="matrix(1,0,0,1,-66,-5)"/>
<path style="fill:none;stroke-width:0.2;stroke-linecap:butt;stroke-linejoin:miter;stroke:rgb(39.99939%,39.99939%,39.99939%);stroke-opacity:1;stroke-miterlimit:3.25;" d="M 125 109.796875 L 127.4375 109.796875 " transform="matrix(1,0,0,1,-66,-5)"/>
<path style="fill:none;stroke-width:0.2;stroke-linecap:butt;stroke-linejoin:miter;stroke:rgb(39.99939%,39.99939%,39.99939%);stroke-opacity:1;stroke-miterlimit:3.25;" d="M 125 94.238281 L 129.066406 94.238281 " transform="matrix(1,0,0,1,-66,-5)"/>
<g style="fill:rgb(39.99939%,39.99939%,39.99939%);fill-opacity:1;">
  <use xlink:href="#glyph1-4" x="40" y="93.738197"/>
  <use xlink:href="#glyph1-7" x="48" y="93.738197"/>
</g>
<path style="fill:none;stroke-width:0.2;stroke-linecap:butt;stroke-linejoin:miter;stroke:rgb(39.99939%,39.99939%,39.99939%);stroke-opacity:1;stroke-miterlimit:3.25;" d="M 125 78.679688 L 127.4375 78.679688 " transform="matrix(1,0,0,1,-66,-5)"/>
<path style="fill:none;stroke-width:0.2;stroke-linecap:butt;stroke-linejoin:miter;stroke:rgb(39.99939%,39.99939%,39.99939%);stroke-opacity:1;stroke-miterlimit:3.25;" d="M 125 63.117188 L 127.4375 63.117188 " transform="matrix(1,0,0,1,-66,-5)"/>
<path style="fill:none;stroke-width:0.2;stroke-linecap:butt;stroke-linejoin:miter;stroke:rgb(39.99939%,39.99939%,39.99939%);stroke-opacity:1;stroke-miterlimit:3.25;" d="M 125 47.558594 L 127.4375 47.558594 " transform="matrix(1,0,0,1,-66,-5)"/>
<path style="fill:none;stroke-width:0.2;stroke-linecap:butt;stroke-linejoin:miter;stroke:rgb(39.99939%,39.99939%,39.99939%);stroke-opacity:1;stroke-miterlimit:3.25;" d="M 125 32 L 129.066406 32 " transform="matrix(1,0,0,1,-66,-5)"/>
<g style="fill:rgb(39.99939%,39.99939%,39.99939%);fill-opacity:1;">
  <use xlink:href="#glyph1-6" x="33" y="31.5"/>
  <use xlink:href="#glyph1-7" x="41" y="31.5"/>
  <use xlink:href="#glyph1-7" x="49" y="31.5"/>
</g>
<path style="fill:none;stroke-width:0.2;stroke-linecap:butt;stroke-linejoin:miter;stroke:rgb(39.99939%,39.99939%,39.99939%);stroke-opacity:1;stroke-miterlimit:3.25;" d="M 125 343.191406 L 125 32 " transform="matrix(1,0,0,1,-66,-5)"/>
<g style="fill:rgb(39.99939%,39.99939%,39.99939%);fill-opacity:1;">
  <use xlink:href="#glyph1-11" x="0.000000000000056843" y="15"/>
  <use xlink:href="#glyph1-12" x="9" y="15"/>
  <use xlink:href="#glyph1-13" x="17" y="15"/>
  <use xlink:href="#glyph1-14" x="22" y="15"/>
  <use xlink:href="#glyph1-12" x="29" y="15"/>
  <use xlink:href="#glyph1-15" x="37" y="15"/>
  <use xlink:href="#glyph1-16" x="45" y="15"/>
  <use xlink:href="#glyph1-17" x="49" y="15"/>
  <use xlink:href="#glyph1-18" x="57" y="15"/>
  <use xlink:href="#glyph1-12" x="65" y="15"/>
</g>
<g style="fill:rgb(39.99939%,39.99939%,39.99939%);fill-opacity:1;">
  <use xlink:href="#glyph1-19" x="76" y="15"/>
  <use xlink:href="#glyph1-20" x="84" y="15"/>
</g>
<g style="fill:rgb(39.99939%,39.99939%,39.99939%);fill-opacity:1;">
  <use xlink:href="#glyph1-16" x="92" y="15"/>
  <use xlink:href="#glyph1-21" x="96" y="15"/>
  <use xlink:href="#glyph1-22" x="99" y="15"/>
  <use xlink:href="#glyph1-12" x="111" y="15"/>
</g>
</g>
</svg>
